{
  "images" : [
    {
      "idiom" : "universal",
      "filename" : "eb203c21-b8b8-44e2-94b7-3eba05f03021.jpg",
      "scale" : "1x"
    },
    {
      "idiom" : "universal",
      "scale" : "2x"
    },
    {
      "idiom" : "universal",
      "scale" : "3x"
    }
  ],
  "info" : {
    "version" : 1,
    "author" : "xcode"
  }
}